[
    {
        "id" : 1,
        "name" : "Spinal Manupulation",
        "price" : 4000,
        "image" : "work-8.jpg",
        "description" : "Could 'cracking your back' be the solution for backaches and headaches? The answer is yes, claim advocates of spinal manipulation.Spinal manipulation, also called spinal manipulative therapy or manual therapy, combines moving and jolting joints, massage, exercise, and physical therapy. It's designed to relieve pressure on joints, reduce inflammation, and improve nerve function. It’s often used to treat back, neck, shoulder, and headache pain. Chiropractors use it to treat other disorders too, such as menstrual pain and sinus problems.Today, spinal manipulation is used in both Western and traditional Asian medicine. In North America, it's usually performed by chiropractors, osteopathic physicians, and physical and occupational therapists."
    },
    {
        "id" : 2,
        "name" : "Electrotherapy",
        "price" : 5500,
        "image" : "work-1.jpg",
        "description" : "Electrotherapy is the use of electrical energy as a medical treatment.[1] In medicine, the term electrotherapy can apply to a variety of treatments, including the use of electrical devices such as deep brain stimulators for neurological disease. The term has also been applied specifically to the use of electric current to speed wound healing. Additionally, the term 'electrotherapy' or 'electromagnetic therapy' has also been applied to a range of alternative medical devices and treatments."
    },
    {
        "id" : 3,
        "name" : "Manual Lymphatic",
        "price" : 12000,
        "image" : "work-3.jpg",
        "description" : "Manual Lymphatic Drainage [MLD] is an unique, gentle type of skin massage technique that promotes lymph to drain out of a limb into an area that drains normally. It is mainly used for lymphoedema.In addition to improving lymphatic circulation, MLD also increases blood flow in deep and superficial veins."
    },
    {
        "id" : 4,
        "name" : "Medical Acupuncture",
        "price" : 11000,
        "image" : "work-5.jpg",
        "description" : "Medical acupuncture is a therapeutic technique that involves inserting fine needles into certain points across the body, to encourage healing and pain relief. Also referred to as ‘western acupuncture’, the practice differs from the ancient Chinese practice it derives from. While still using needles to stimulate the body’s natural healing abilities, it doesn’t adhere to the concepts of Qi or yin/yang, as followed in Chinese acupuncture."
    },
    {
        "id" : 5,
        "name" : "Therapeutic Exercise",
        "price" : 7500,
        "image" : "work-6.jpg",
        "description" : "Therapeutic exercise is used in physical therapy to prevent disability, to minimize the progression of factors which result in disabilities, and to provide rehabilitation from pathological processes which result in loss of function and participation in the community. The PT/PTA team consider risk factors which may impact successful progression through a plan of care. Biological, lifestyle, environmental, and socioeconomic factors which impact treatment planning and progression are an integral part of PT/PTA -patient- centered approach to treatment."
    },
    {
        "id" : 6,
        "name" : "Joint Mobilization",
        "price" : 7999,
        "image" : "work-7.jpg",
        "description" : "Joint mobilization is a manual therapy intervention, a type of straight-lined, passive movement of a skeletal joint that addresses arthrokinematic joint motion (joint gliding) rather than osteokinematic joint motion. It is usually aimed at a 'target' synovial joint with the aim of achieving a therapeutic effect. These techniques are used by a variety of health care professionals with specific training in manual therapy assessment and treatment techniques."
    }
    
]